{
    "challenges": [
        {
            "id": "1",
            "name": "Lights out!",
            "description": "Get your candles at the ready, all the lights are out!",
            "map": "6 Tanglewood Drive",
            "descriptionUrl": "https://drive.google.com/file/d/1Fqgs4Sh06a5ELkQWB3_krkmowMC4zkKQ"
        },
        {
            "id": "2",
            "name": "Speed Demons",
            "description": "There must be something in the air, everyone's going crazy!",
            "map": "Maple Lodge Campsite",
            "descriptionUrl": "https://drive.google.com/file/d/1iHfOrMM7sN2d-uPl7NIjqVfaXYnRqqfn"
        },
        {
            "id": "3",
            "name": "Detectives only",
            "description": "Put your detective skills to the test, this ghost is giving nothing away!",
            "map": "42 Edgefield Road",
            "descriptionUrl": "https://drive.google.com/file/d/1J5HWi7cpswfFBr-t6yNko0a765JewUbB"
        },
        {
            "id": "4",
            "name": "Hide and Seek: Seeker",
            "description": "There's a very quiet ghost hiding somewhere, can you find it?",
            "map": "Brownstone High School",
            "descriptionUrl": "https://drive.google.com/file/d/1IuIcFCtAcXX4zVxcaycQcAFyT7esyJ8O"
        },
        {
            "id": "5",
            "name": "Hide and Seek: Hide!",
            "description": "This ghost wants to play a game, you better hide quick!",
            "map": "Point Hope",
            "descriptionUrl": "https://drive.google.com/file/d/1ESI-9R-bDxs_k2oBmYvVz7UtXJQaHXPv"
        },
        {
            "id": "6",
            "name": "Frostbitten",
            "description": "It's so cold that it's slowing everyone down, including the ghost!",
            "map": "Camp Woodwind",
            "descriptionUrl": "https://drive.google.com/file/d/1njZioRGQrnEPGIk5lipqEwn9J4g-IHDr"
        },
        {
            "id": "7",
            "name": "Do as I Command",
            "description": "You'll have to force this ghost to give you evidence, luckily, we've found some extra items to help you out.",
            "map": "Sunny Meadows",
            "descriptionUrl": "https://drive.google.com/file/d/1UtukxC6HaHqrs4KVv5p_qOPXNThIUrv3"
        },
        {
            "id": "8",
            "name": "Tortoise and the Hare: Hare",
            "description": "Give it your all, this ghost is feeling especially frail.",
            "map": "Bleasdale Farmhouse",
            "descriptionUrl": "https://drive.google.com/file/d/1LQyxjeWZhFA33GbsVvpVVRzdEb2jlzTP"
        },
        {
            "id": "9",
            "name": "Tortoise and the Hare: Tortoise",
            "description": "After last week you're feeling a bit worn out, and to make matters worse, the ghost has recovered!",
            "map": "Grafton Farmhouse",
            "descriptionUrl": "https://drive.google.com/file/d/1YBa-V62A6baqdo4PgZEGIxckGspnkoKn"
        },
        {
            "id": "10",
            "name": "Gotta Go Fast!",
            "description": "No hiding, no sanity, get going!",
            "map": "Prison",
            "descriptionUrl": "https://drive.google.com/file/d/1lEcL7pYM1ZeO_52EbNFl7mDUDk7HJGkR"
        },
        {
            "id": "11",
            "name": "Sanity Survival",
            "description": "Sanity is a scarce resource with no pills or lights. Be careful finding this Nightmare ghost.",
            "map": "10 Ridgeview Court",
            "descriptionUrl": "https://drive.google.com/file/d/11Z2SD7FheW59OTQV7Amz8HgkmIqSXaaK"
        },
        {
            "id": "12",
            "name": "Speedrun!",
            "description": "Maybe you could start a timer, how quickly can you find this ghost's identity?",
            "map": "6 Tanglewood Drive",
            "descriptionUrl": "https://drive.google.com/file/d/1AVsfsK3W9D3EbjVzy-TvscQcMgIUxhqW"
        },
        {
            "id": "13",
            "name": "Survival of the Fittest",
            "description": "You've got no pills, no sanity and no evidence to work with. It's gonna be a tough one!",
            "map": "42 Edgefield Road",
            "descriptionUrl": "https://drive.google.com/file/d/1lCoNT5Fwaqs3X3FAbGsxvDocFUIOTqyM"
        },
        {
            "id": "14",
            "name": "Primitive",
            "description": "I'm afraid all of the electronic equipment has short-circuited, you'll have to make do without.",
            "map": "10 Ridgeview Court",
            "descriptionUrl": "https://drive.google.com/file/d/1qQeEgr_LHnsjpOoJbhg4qB4vsG0OC3fb"
        },
        {
            "id": "15",
            "name": "Vulnerable",
            "description": "You'll be going into this one with no defenses, be careful out there.",
            "map": "13 Willow Street",
            "descriptionUrl": "https://drive.google.com/file/d/1U2RlP1cGxSithpv4rvjxXM-QONnUiPeE"
        },
        {
            "id": "16",
            "name": "Missed delivery",
            "description": "We didn't receive our full equipment delivery this week, so you won't have everything you might need!",
            "map": "Brownstone High School",
            "descriptionUrl": "https://drive.google.com/file/d/1eRuqpNHl39cv3whcmcDkftSYDehaS9RQ"
        },
        {
            "id": "17",
            "name": "Audio only",
            "description": "We've managed to get hold of some extra audio equipment. You'll have to use your ears on this one.",
            "map": "Sunny Meadows",
            "descriptionUrl": "https://drive.google.com/file/d/1jdHjdoaVW6H791oWk5Q-EFBYFaALGcgC"
        },
        {
            "id": "18",
            "name": "Technophilia",
            "description": "We've thrown out all of those prehistoric items, this contract is all about technology!",
            "map": "Bleasdale Farmhouse",
            "descriptionUrl": "https://drive.google.com/file/d/1pPMxc3-_Qoth5IcL27ImpyKfZ7GHm4jS"
        },
        {
            "id": "19",
            "name": "No Evidence",
            "description": "These ghosts really don't wanna help you out, but we're sure you're up to the task.",
            "map": "Grafton Farmhouse",
            "descriptionUrl": "https://drive.google.com/file/d/130yhzSly2n0dzDSAEYDWMYFSObK1R8GW"
        },
        {
            "id": "20",
            "name": "The Apocalypse Draws Near",
            "description": "The hardest possible challenge, but with normal investigator speed. Good luck.",
            "map": "Sunny Meadows Restricted",
            "descriptionUrl": "https://drive.google.com/file/d/1fmoKnoGizw2A_V_y4kZJDysGi3AvyY6J"
        },
        {
            "id": "21",
            "name": "Slow and Steady",
            "description": "This ghost may be slow, but its angry. Keep on your toes!",
            "map": "Camp Woodwind",
            "descriptionUrl": "https://drive.google.com/file/d/1XH5VKye7v4Tzl0tjY_A8EaRjQE1qFGNq"
        },
        {
            "id": "22",
            "name": "Paranormal Paparazzi",
            "description": "You've got cameras, lights and sound. Find that ghost type!",
            "map": "Point Hope",
            "descriptionUrl": "https://drive.google.com/file/d/1PgvmvI0lBF0OPr8p6k2aeIBng5fX598L"
        },
        {
            "id": "23",
            "name": "Hide and seek: Extreme",
            "description": "This ghost wants to play a game, you better hide.",
            "map": "Camp Woodwind",
            "descriptionUrl": "https://drive.google.com/file/d/1g0OBrdtEz-xAhXe5TkIEQLVfBZ3a6YIi"
        },
        {
            "id": "24",
            "name": "Glow in the Dark",
            "description": "Some of our equipment has stopped working, hopefully this'll be enough for you to see.",
            "map": "42 Edgefield Road",
            "descriptionUrl": "https://drive.google.com/file/d/16zQJlgqfKsrjXejJI_cdEMdUJbUetljP"
        },
        {
            "id": "25",
            "name": "Deja Vu",
            "description": "This one feels pretty nostalgic, don't you think?",
            "map": "6 Tanglewood Drive",
            "descriptionUrl": "https://drive.google.com/file/d/1vdItvyMriqyCa1IC01yZeCuqxINLNcBD"
        },
        {
            "id": "26",
            "name": "Tag! You're it!",
            "description": "This ghost will chase you immediately, better get running!",
            "map": "Brownstone High School",
            "descriptionUrl": "https://drive.google.com/file/d/1G9xiGF6X5ss_4qAZRuQIKQEQNFN7loaG"
        }
    ],
    "ghosts": [
        {
            "id": "1",
            "name": "Spirit",
            "evidence": [
                "EMF Level 5",
                "Spirit Box",
                "Ghost Writing"
            ],
            "jornalDescription": "",
            "huntThreshold": "50%",
            "ghostSpeed": "1.7m/s",
            "giveAway": "",
            "excluder": "Hunts before 3 Minutes are up after previously being smudged",
            "hiddenAbility": "Smudging the Room / Ghost prevents hunts for 3 Minutes (rather than the normal 1.5 Minutes)",
            "notes": "When on very low Sanity, Smudge the Ghost during a hunt and run a timer. If it takes around 3 Minutes for a new hunt, probably a Spirit"
        },
        {
            "id": "2",
            "name": "Wraith",
            "evidence": [
                "EMF Level 5",
                "Spirit Box",
                "D.O.T.S"
            ],
            "jornalDescription": "",
            "huntThreshold": "50%",
            "ghostSpeed": "1.7m/s",
            "giveAway": "Will never step in Salt((Random EMF response at player outside of Ghost Room or Roaming Distance))",
            "excluder": "Salt Footprints",
            "hiddenAbility": "May Teleport to Player (Giving of EMF Readings)",
            "notes": "Random EMF reading outside of Activity could give off the Teleport. Is usually found accidentally when going for Foot Pics."
        },
        {
            "id": "3",
            "name": "Phantom",
            "evidence": [
                "Ultraviolet",
                "Spirit Box",
                "D.O.T.S"
            ],
            "jornalDescription": "",
            "huntThreshold": "50%",
            "ghostSpeed": "1.7m/s",
            "giveAway": "Disappears after taking Picture. Ghost Picture has NO static in picture",
            "excluder": "",
            "hiddenAbility": "Reduces Sanity when you look at it",
            "notes": "Hunt: The Ghost Model with flash in only every 1-2 seconds, rather than every 0.3s-1s (meaning slower flashes)"
        },
        {
            "id": "4",
            "name": "Poltergeist",
            "evidence": [
                "Ultraviolet",
                "Spirit Box",
                "Ghost Writing"
            ],
            "jornalDescription": "",
            "huntThreshold": "50%",
            "ghostSpeed": "1.7m/s",
            "giveAway": "Multithrow",
            "excluder": "",
            "hiddenAbility": "Can throw more than one object occasionally. Can throw objects further than other ghosts.",
            "notes": "Touches everything constantly."
        },
        {
            "id": "5",
            "name": "Banshee",
            "evidence": [
                "Ultraviolet",
                "Ghost Orb",
                "D.O.T.S"
            ],
            "jornalDescription": "",
            "huntThreshold": "50% (Only target sanity counts)",
            "ghostSpeed": "1.7m/s",
            "giveAway": "Ignores closer players during a Hunt",
            "excluder": "",
            "hiddenAbility": "Prefers Singing Ghost Events",
            "notes": "Banshee will pic a random target, and only go for them during a hunt. It will also only check the target's Sanity for the Hunt threshhold. If it's target is outside the Investigation Area, the Banshee will act like a normal ghost."
        },
        {
            "id": "6",
            "name": "Jinn",
            "evidence": [
                "EMF Level 5",
                "Freezing Temperatures",
                "Ultraviolet"
            ],
            "jornalDescription": "",
            "huntThreshold": "50%",
            "ghostSpeed": "2.5m/s (fusebox on, LoS to player, far away).1.6m/s",
            "giveAway": " Hunt: Quickly jumps closer to players in sight",
            "excluder": "Turned off the Breaker (directly)",
            "hiddenAbility": "May reduce the Sanity of nearby players by 25% IF the Breaker is on",
            "notes": "The Jinn's ability to reduce your Sanity, will give an EMF reading at the breaker. Speed is determined by Breaker State and Line of Sight to the Player."
        },
        {
            "id": "7",
            "name": "Mare",
            "evidence": [
                "Ghost Orb",
                "Spirit Box",
                "Ghost Writing"
            ],
            "jornalDescription": "",
            "huntThreshold": "Light Off: 60% Light On: 40%",
            "ghostSpeed": "1.7m/s",
            "giveAway": "Light turns off immediately after being turned on",
            "excluder": "Turned on a Light",
            "hiddenAbility": "May sometimes turn off a light immediately after a player turns it on",
            "notes": "Hunt Threshold based on the Light being on or off in the Ghost Room:On: 40%, Off: 60% Mares will roam further if the light in their room is turned on."
        },
        {
            "id": "8",
            "name": "Revenant",
            "evidence": [
                "Ghost Orb",
                "Freezing Temperatures",
                "Ghost Writing"
            ],
            "jornalDescription": "",
            "huntThreshold": "50%",
            "ghostSpeed": "1m/s (while not spotting player) 3m/s (LoS or heard voice / electronics)",
            "giveAway": "Light turns off immediately after being turned on",
            "excluder": "Fast / Normal Footsteps",
            "hiddenAbility": "",
            "notes": "2 Different Hunt Speeds. When it senses a player or their equipment: GIGA FAST. When it sees no player or reaches last known player position: Really Slow"
        },
        {
            "id": "9",
            "name": "Shade",
            "evidence": [
                "EMF Level 5",
                "Freezing Temperatures",
                "Ghost Writing"
            ],
            "jornalDescription": "",
            "huntThreshold": "35%",
            "ghostSpeed": "1.7m/s",
            "giveAway": "",
            "excluder": "Started Hunt / Event from the same room the player is currently in",
            "hiddenAbility": "Unable to do Throws, Ghost Events or Hunts when another player is in a room with her. Can Appear as Black Shadow in Summoning Circle",
            "notes": "Incredibly shy and inactive"
        },
        {
            "id": "10",
            "name": "Demon",
            "evidence": [
                "Ultraviolet",
                "Freezing Temperatures",
                "Ghost Writing"
            ],
            "jornalDescription": "",
            "huntThreshold": "70% (100% Ability)",
            "ghostSpeed": "1.7m/s",
            "giveAway": "",
            "excluder": "",
            "hiddenAbility": "May (regardless of Sanity) walk towards a random player, then initiate a hunt. Crucifixes have 5m Radius",
            "notes": "Smudging them only prevents hunts for 1 Minute."
        },
        {
            "id": "11",
            "name": "Yurei",
            "evidence": [
                "Ghost Orb",
                "Freezing Temperatures",
                "D.O.T.S"
            ],
            "jornalDescription": "",
            "huntThreshold": "50%",
            "ghostSpeed": "1.7m/s",
            "giveAway": "The Yurei Door Close: He will touch a door and a second later close it fully (2 sounds) / Everyone's sanity is oddly low",
            "excluder": "",
            "hiddenAbility": "Ability that reduces the Sanity of nearby players (Door Shut) More likely to do Mistball Ghost Events",
            "notes": "Note when you hear a door touch, with a suspiciously delayed door closing sound outside of Ghost Events and Hunts. Smudging the ghost will trap it in it's room for the entire Smudge Duration (90s)"
        },
        {
            "id": "12",
            "name": "Oni",
            "evidence": [
                "EMF Level 5",
                "Freezing Temperatures",
                "D.O.T.S"
            ],
            "jornalDescription": "",
            "huntThreshold": "50%",
            "ghostSpeed": "1.7m/s",
            "giveAway": "",
            "excluder": "Mistball Ghost Event",
            "hiddenAbility": "Flickers less during Hunts. Drains sanity during Ghost Events at twice the speed",
            "notes": "Flickers less during hunts, is visible longer (opposite of Phantom).  Will more often appear in full form during an event. "
        },
        {
            "id": "13",
            "name": "Yokai",
            "evidence": [
                "Ghost Orb",
                "Spirit Box",
                "D.O.T.S"
            ],
            "jornalDescription": "",
            "huntThreshold": "50% (80% When someone talks close to them)",
            "ghostSpeed": "1.7m/s",
            "giveAway": "Unable to find you during a hunt despite active electric devices",
            "excluder": "",
            "hiddenAbility": "",
            "notes": "Hunt: Yokais cannot hear voices or notice electrical devices unless they are in it's direct vicinity (2-3m). Talking within 2-3m of them may trigger a hunt."
        },
        {
            "id": "14",
            "name": "Hantu",
            "evidence": [
                "Ghost Orb",
                "Freezing Temperatures",
                "Ultraviolet"
            ],
            "jornalDescription": "",
            "huntThreshold": "50% (80% When someone talks close to them)",
            "ghostSpeed": "Based on Room Temperature and No Speedup with LoS. 1.4m/s - 2.7m/s",
            "giveAway": "Cold Breath on Ghost during Hunt",
            "excluder": "No Freezing Temp Evidence",
            "hiddenAbility": "Has frozen breath when hunting while the Breaker is Off. Cannot turn on breaker",
            "notes": "Guarantees Freezing Temperatures on Nightmare. Chance to turn off the breaker is doubled"
        },
        {
            "id": "15",
            "name": "Goryo",
            "evidence": [
                "EMF Level 5",
                "D.O.T.S",
                "Ultraviolet"
            ],
            "jornalDescription": "",
            "huntThreshold": "50%",
            "ghostSpeed": "1.7m/s",
            "giveAway": "",
            "excluder": "DOTS seen without a camera. No DOTS evidence",
            "hiddenAbility": "",
            "notes": "Guarantees DOTS evidence on Nightmare. DOTS evidence can only be seen through a camera and outside the Ghost Room. Will rarely roam outside the Ghost Room"
        },
        {
            "id": "16",
            "name": "Myling",
            "evidence": [
                "EMF Level 5",
                "Ghost Writing",
                "Ultraviolet"
            ],
            "jornalDescription": "",
            "huntThreshold": "50%",
            "ghostSpeed": "1.7m/s",
            "giveAway": "",
            "excluder": "",
            "hiddenAbility": "Higher Chance for Singing Ghost Events. Hunt: Footstep Sound range is lower than Flashlight flicker range",
            "notes": "Mylings being quieter during hunts refers ONLY to the footstep sound. It is shorter than the Electrics malfunction range. So sit in a hiding space with a flashlight on the ground, if you hear the footsteps (on the same level) before the flashlight goes off, it's a Myling."
        },
        {
            "id": "17",
            "name": "Onryo",
            "evidence": [
                "Ghost Orb",
                "Spirit Box",
                "Freezing Temperatures"
            ],
            "jornalDescription": "",
            "huntThreshold": "60%",
            "ghostSpeed": "1.7m/s",
            "giveAway": "",
            "excluder": "Consumes Crucifixes despite a burning candle on top of them",
            "hiddenAbility": "'Blowing out' a candle has a chance to start a hunt",
            "notes": "Onryo Test: Place a crucifix and then a candle on top of it. When trying to hunt but a Candle is within 4 meters, the candle will be blown out and the hunt stopped. TL;DR if it consumes the cross without blowing off the candle, it's not an Onryo"
        },
        {
            "id": "18",
            "name": "The Twins",
            "evidence": [
                "EMF Level 5",
                "Spirit Box",
                "Freezing Temperatures"
            ],
            "jornalDescription": "",
            "huntThreshold": "50%",
            "ghostSpeed": "1.5m/s or 1.9m/s (depends on which Twin hunts)",
            "giveAway": "'Twinteraction' / Two interactions back to back in different rooms",
            "excluder": "",
            "hiddenAbility": "Both Ghosts can hunt. Main Ghost: 10% LESS speed  Decoy: 10% MORE speed",
            "notes": "Twinteraction: refers to event where on the Van activity meter there are two different slope angles in one reading. Note if two interactions happen close to each other in time, but in multiple different rooms a single ghost could not reach so quickly."
        },
        {
            "id": "19",
            "name": "Raiju",
            "evidence": [
                "EMF Level 5",
                "Ghost Orb",
                "D.O.T.S"
            ],
            "jornalDescription": "",
            "huntThreshold": "50% (65% when nearby electrical equipment)",
            "ghostSpeed": "1.7m/sm; 2.5m/s (nearby electronic equipment)",
            "giveAway": "Hunt: Ghost Speed increases and decreases during the hunt (when nearby active electronic devices)",
            "excluder": "",
            "hiddenAbility": "Moves faster around Electrical Equipment",
            "notes": "When electrical devices (player items) are in it's ghost room, the hunt threshold is increased. Hunt: Being near active electric devices (brought by players) will speed the ghost up. Entering and leaving the vicinity of these devices will sound as if the ghost speed changes dynamically."
        },
        {
            "id": "20",
            "name": "Obake",
            "evidence": [
                "EMF Level 5",
                "Ghost Orb",
                "Ultraviolet"
            ],
            "jornalDescription": "",
            "huntThreshold": "50%",
            "ghostSpeed": "1.7m/sm",
            "giveAway": "Hand prints with 6 fingers or two thumbs on a light switch. Changes ghost model during Hunts",
            "excluder": "No Fingerprint Evidence",
            "hiddenAbility": "Only has a 75% chance to leave Fingerprints for an interaction",
            "notes": "Guarantees Fingerprints on Nightmare. Has a 6.66% chance to change into a different ghost model during Hunts."
        },
        {
            "id": "21",
            "name": "The Mimic",
            "evidence": [
                "Ghost Orb",
                "Spirit Box",
                "Freezing Temperatures",
                "Ultraviolet"
            ],
            "jornalDescription": "",
            "huntThreshold": "Depends on mimiced Ghost",
            "ghostSpeed": "(Based on the Ghost it Mimics)",
            "giveAway": "3 Evidences on Nightmare, 4 on Professional. (One of which is Ghost Orbs)",
            "excluder": "No Ghost Orb Evidence",
            "hiddenAbility": "Can copy the behaviour of every other ghost",
            "notes": "Always produces Ghost Orb Evidence, no matter what the journal says"
        },
        {
            "id": "22",
            "name": "Moroi",
            "evidence": [
                "Spirit Box",
                "Freezing Temperatures",
                "Ghost Writing"
            ],
            "jornalDescription": "",
            "huntThreshold": "50%",
            "ghostSpeed": "1.5m/s (100% Sanity). 2.25m/s (0% Sanity). max 3.71m/s with LoS and 0 Sanity",
            "giveAway": "Curse: Spirit Box or Paramic response will drop your sanity despite using a candle",
            "excluder": "No Spirit Box Evidence",
            "hiddenAbility": "Hunt speed depends on player sanity when the hunt starts",
            "notes": "Guarantees Spirit Box Evidence on Nightmare. Being cursed (Spirit Box, Paramic response) will double your sanity drain, while also ignoring the candle protection"
        },
        {
            "id": "23",
            "name": "Deogen",
            "evidence": [
                "Spirit Box",
                "Ghost Writing",
                "D.O.T.S"
            ],
            "jornalDescription": "",
            "huntThreshold": "40%",
            "ghostSpeed": "3m/s (>2.5m away) 0.4m/s (<2.5m away)",
            "giveAway": "VERY FAST when you are hidden, very slow when next to him",
            "excluder": "",
            "hiddenAbility": "Using the Spirit Box within 1m of him, will make him respond with a heavy breathing sound (If Spirit Box is an Evidence Type)",
            "notes": "You CANNOT HIDE from this ghost, you will need to loop or kite it in the open."
        },
        {
            "id": "24",
            "name": "Thaye",
            "evidence": [
                "Ghost Orb",
                "Ghost Writing",
                "D.O.T.S"
            ],
            "jornalDescription": "",
            "huntThreshold": "75% - 15%(-6% per aging step)",
            "ghostSpeed": "2.75m/s (young) -0.175 (per increment) 1m/s (max old)",
            "giveAway": "",
            "excluder": "Low Activity / Slow Hunt Speed early on",
            "hiddenAbility": "Constantly Ages. Starts hyperactive and fast, becomes slower and less active over time",
            "notes": "Every 2 Minutes the ghost attempts to age when you are close, if not the timer will be increased by 30 seconds. Be in the ghost room to make him age."
        }
    ]
}
